<?xml version="1.0" encoding="UTF-8"?>

<svg version="1.2" baseProfile="tiny" width="72.68mm" height="72.68mm" viewBox="1000 5087 7268 7268" preserveAspectRatio="xMidYMid" fill-rule="evenodd" stroke-width="28.222" stroke-linejoin="round" xmlns="http://www.w3.org/2000/svg" xmlns:ooo="http://xml.openoffice.org/svg/export" xmlns:xlink="http://www.w3.org/1999/xlink" xml:space="preserve">
 <defs class="ClipPathGroup">
  <clipPath id="presentation_clip_path" clipPathUnits="userSpaceOnUse">
   <rect x="1000" y="5087" width="7268" height="7268"/>
  </clipPath>
 </defs>
 <defs class="TextShapeIndex">
  <g ooo:slide="id1" ooo:id-list="id3 id4"/>
 </defs>
 <defs class="EmbeddedBulletChars">
  <g id="bullet-char-template(57356)" transform="scale(0.00048828125,-0.00048828125)">
   <path d="M 580,1141 L 1163,571 580,0 -4,571 580,1141 Z"/>
  </g>
  <g id="bullet-char-template(57354)" transform="scale(0.00048828125,-0.00048828125)">
   <path d="M 8,1128 L 1137,1128 1137,0 8,0 8,1128 Z"/>
  </g>
  <g id="bullet-char-template(10146)" transform="scale(0.00048828125,-0.00048828125)">
   <path d="M 174,0 L 602,739 174,1481 1456,739 174,0 Z M 1358,739 L 309,1346 659,739 1358,739 Z"/>
  </g>
  <g id="bullet-char-template(10132)" transform="scale(0.00048828125,-0.00048828125)">
   <path d="M 2015,739 L 1276,0 717,0 1260,543 174,543 174,936 1260,936 717,1481 1274,1481 2015,739 Z"/>
  </g>
  <g id="bullet-char-template(10007)" transform="scale(0.00048828125,-0.00048828125)">
   <path d="M 0,-2 C -7,14 -16,27 -25,37 L 356,567 C 262,823 215,952 215,954 215,979 228,992 255,992 264,992 276,990 289,987 310,991 331,999 354,1012 L 381,999 492,748 772,1049 836,1024 860,1049 C 881,1039 901,1025 922,1006 886,937 835,863 770,784 769,783 710,716 594,584 L 774,223 C 774,196 753,168 711,139 L 727,119 C 717,90 699,76 672,76 641,76 570,178 457,381 L 164,-76 C 142,-110 111,-127 72,-127 30,-127 9,-110 8,-76 1,-67 -2,-52 -2,-32 -2,-23 -1,-13 0,-2 Z"/>
  </g>
  <g id="bullet-char-template(10004)" transform="scale(0.00048828125,-0.00048828125)">
   <path d="M 285,-33 C 182,-33 111,30 74,156 52,228 41,333 41,471 41,549 55,616 82,672 116,743 169,778 240,778 293,778 328,747 346,684 L 369,508 C 377,444 397,411 428,410 L 1163,1116 C 1174,1127 1196,1133 1229,1133 1271,1133 1292,1118 1292,1087 L 1292,965 C 1292,929 1282,901 1262,881 L 442,47 C 390,-6 338,-33 285,-33 Z"/>
  </g>
  <g id="bullet-char-template(9679)" transform="scale(0.00048828125,-0.00048828125)">
   <path d="M 813,0 C 632,0 489,54 383,161 276,268 223,411 223,592 223,773 276,916 383,1023 489,1130 632,1184 813,1184 992,1184 1136,1130 1245,1023 1353,916 1407,772 1407,592 1407,412 1353,268 1245,161 1136,54 992,0 813,0 Z"/>
  </g>
  <g id="bullet-char-template(8226)" transform="scale(0.00048828125,-0.00048828125)">
   <path d="M 346,457 C 273,457 209,483 155,535 101,586 74,649 74,723 74,796 101,859 155,911 209,963 273,989 346,989 419,989 480,963 531,910 582,859 608,796 608,723 608,648 583,586 532,535 482,483 420,457 346,457 Z"/>
  </g>
  <g id="bullet-char-template(8211)" transform="scale(0.00048828125,-0.00048828125)">
   <path d="M -4,459 L 1135,459 1135,606 -4,606 -4,459 Z"/>
  </g>
 </defs>
 <defs class="TextEmbeddedBitmaps"/>
 <g class="SlideGroup">
  <g>
   <g id="id1" class="Slide" clip-path="url(#presentation_clip_path)">
    <g class="Page">
     <g class="com.sun.star.drawing.CustomShape">
      <g id="id3">
       <path fill="rgb(195,198,192)" stroke="none" d="M 4633,5087 C 6693,5087 8266,6660 8266,8720 8266,10780 6693,12353 4633,12353 2573,12353 1000,10780 1000,8720 1000,6660 2573,5087 4633,5087 Z M 1000,5087 L 1000,5087 Z M 8267,12354 L 8267,12354 Z"/>
       <path fill="none" stroke="rgb(195,198,192)" d="M 4633,5087 C 6693,5087 8266,6660 8266,8720 8266,10780 6693,12353 4633,12353 2573,12353 1000,10780 1000,8720 1000,6660 2573,5087 4633,5087 Z"/>
       <path fill="none" stroke="rgb(195,198,192)" d="M 1000,5087 L 1000,5087 Z"/>
       <path fill="none" stroke="rgb(195,198,192)" d="M 8267,12354 L 8267,12354 Z"/>
      </g>
     </g>
     <g class="Graphic">
      <g id="id4">
       <path fill="rgb(0,0,0)" stroke="none" d="M 5872,7393 C 5765,7393 5665,7428 5584,7488 5505,7326 5339,7214 5147,7214 5039,7214 4939,7249 4858,7309 4779,7148 4612,7037 4421,7037 4334,7037 4253,7060 4182,7099 L 4182,6320 C 4182,6051 3964,5833 3695,5833 3427,5833 3208,6051 3208,6320 L 3208,8126 C 3153,8093 3092,8072 3026,8063 2897,8046 2770,8080 2666,8159 2563,8238 2496,8352 2479,8481 2462,8610 2496,8738 2575,8841 L 3393,9912 C 3488,10091 3619,10251 3780,10384 L 3780,11203 C 3780,11272 3835,11327 3904,11327 L 5664,11327 C 5732,11327 5788,11272 5788,11203 L 5788,10384 C 6152,10084 6359,9645 6359,9170 L 6359,7880 C 6359,7611 6141,7393 5872,7393 L 5872,7393 Z M 2772,8691 C 2733,8640 2716,8577 2725,8514 2733,8450 2766,8394 2817,8356 2867,8317 2930,8300 2993,8309 3057,8317 3113,8350 3152,8400 L 3208,8475 3208,9170 C 3208,9203 3210,9235 3211,9267 L 2772,8691 2772,8691 Z M 6111,9170 C 6111,9588 5921,9973 5589,10226 5558,10250 5540,10286 5540,10325 L 5540,11079 4028,11079 4028,10325 C 4028,10286 4010,10250 3979,10226 3647,9973 3456,9588 3456,9170 L 3456,6320 C 3456,6188 3563,6081 3695,6081 3827,6081 3934,6188 3934,6320 L 3934,8396 C 3934,8465 3990,8520 4058,8520 4126,8520 4182,8465 4182,8396 L 4182,7523 C 4182,7392 4289,7284 4421,7284 4553,7284 4660,7392 4660,7523 L 4660,8414 C 4660,8483 4715,8538 4784,8538 4852,8538 4908,8483 4908,8414 L 4908,7701 C 4908,7569 5015,7462 5147,7462 5279,7462 5386,7569 5386,7701 L 5386,7827 C 5386,7833 5386,7839 5387,7845 5386,7856 5386,7868 5386,7880 L 5386,8396 C 5386,8465 5441,8520 5510,8520 5578,8520 5633,8465 5633,8396 L 5633,7880 C 5633,7748 5741,7641 5872,7641 6004,7641 6112,7748 6112,7880 L 6112,9170 6111,9170 Z"/>
      </g>
     </g>
    </g>
   </g>
  </g>
 </g>
</svg>